월마트 대회 with Tidymodels
…
5.4 \(\lambda\) 튜닝하기

doParallel::registerDoParallel()

tune_result <- workflow %>% 
  tune_grid(validation_split,
            grid = param_grid,
            metrics = metric_set(rmse, mae))

tune_result %>% 
  collect_metrics()

## # A tibble: 500 x 8
##     penalty mixture .metric .estimator  mean     n  std_err .config             
##       <dbl>   <dbl> <chr>   <chr>      <dbl> <int>    <dbl> <chr>               
##  1 1.00e-10       0 mae     standard   0.705     5 0.000921 Preprocessor1_Model~
##  2 1.00e-10       0 rmse    standard   1.04      5 0.00177  Preprocessor1_Model~
##  3 1.60e-10       0 mae     standard   0.705     5 0.000921 Preprocessor1_Model~
##  4 1.60e-10       0 rmse    standard   1.04      5 0.00177  Preprocessor1_Model~
##  5 2.56e-10       0 mae     standard   0.705     5 0.000921 Preprocessor1_Model~
##  6 2.56e-10       0 rmse    standard   1.04      5 0.00177  Preprocessor1_Model~
##  7 4.09e-10       0 mae     standard   0.705     5 0.000921 Preprocessor1_Model~
##  8 4.09e-10       0 rmse    standard   1.04      5 0.00177  Preprocessor1_Model~
##  9 6.55e-10       0 mae     standard   0.705     5 0.000921 Preprocessor1_Model~
## 10 6.55e-10       0 rmse    standard   1.04      5 0.00177  Preprocessor1_Model~
## # ... with 490 more rows
…
