Untitled
…
all_data %>% mutate(year = year(datetime), 
                    month = month(datetime),
                    wday = wday(datetime),
                    day = day(datetime), 
                    hour = hour(datetime)) %>% 
    select(year, month, wday, day, holiday, workingday, everything()) -> all_data

all_data$wday <- factor(all_data$wday, labels = c('Sun', 'Mon', 'Tue', 'Wed', 'Thur', 'Fri', 'Sat'))
all_data$month <- as.factor(all_data$month)
all_data

## # A tibble: 17,379 x 15
##     year month wday    day holiday workingday datetime            season weather
##    <int> <fct> <fct> <int> <fct>   <fct>      <dttm>              <fct>  <fct>  
##  1  2011 1     Sat       1 0       0          2011-01-01 00:00:00 spring 1      
##  2  2011 1     Sat       1 0       0          2011-01-01 01:00:00 spring 1      
##  3  2011 1     Sat       1 0       0          2011-01-01 02:00:00 spring 1      
##  4  2011 1     Sat       1 0       0          2011-01-01 03:00:00 spring 1      
##  5  2011 1     Sat       1 0       0          2011-01-01 04:00:00 spring 1      
##  6  2011 1     Sat       1 0       0          2011-01-01 05:00:00 spring 2      
##  7  2011 1     Sat       1 0       0          2011-01-01 06:00:00 spring 1      
##  8  2011 1     Sat       1 0       0          2011-01-01 07:00:00 spring 1      
##  9  2011 1     Sat       1 0       0          2011-01-01 08:00:00 spring 1      
## 10  2011 1     Sat       1 0       0          2011-01-01 09:00:00 spring 1      
## # ... with 17,369 more rows, and 6 more variables: temp <dbl>, atemp <dbl>,
## #   humidity <dbl>, windspeed <dbl>, count <dbl>, hour <int>
…
## 12.83 sec elapsed

lasso_res %>% 
    collect_metrics()

## # A tibble: 100 x 7
##     penalty .metric .estimator  mean     n std_err .config              
##       <dbl> <chr>   <chr>      <dbl> <int>   <dbl> <chr>                
##  1 1.00e-10 rmse    standard   1.02      5 0.00567 Preprocessor1_Model01
##  2 1.00e-10 rsq     standard   0.481     5 0.00654 Preprocessor1_Model01
##  3 1.60e-10 rmse    standard   1.02      5 0.00567 Preprocessor1_Model02
##  4 1.60e-10 rsq     standard   0.481     5 0.00654 Preprocessor1_Model02
##  5 2.56e-10 rmse    standard   1.02      5 0.00567 Preprocessor1_Model03
##  6 2.56e-10 rsq     standard   0.481     5 0.00654 Preprocessor1_Model03
##  7 4.09e-10 rmse    standard   1.02      5 0.00567 Preprocessor1_Model04
##  8 4.09e-10 rsq     standard   0.481     5 0.00654 Preprocessor1_Model04
##  9 6.55e-10 rmse    standard   1.02      5 0.00567 Preprocessor1_Model05
## 10 6.55e-10 rsq     standard   0.481     5 0.00654 Preprocessor1_Model05
## # ... with 90 more rows
…
best_param_lasso <- select_best(lasso_res, 'rmse')
final_model <- finalize_model(lasso_spec, best_param_lasso)
final_workflow <- lasso_wf %>% update_model(final_model)
lasso_fit <- fit(final_workflow, data = train2)

pred_lasso <- 
    predict(lasso_fit, test2) %>% 
    mutate(modelo = "LASSO")

pred_lasso

## # A tibble: 6,493 x 2
##    .pred modelo
##    <dbl> <chr> 
##  1  2.78 LASSO 
##  2  2.85 LASSO 
##  3  2.94 LASSO 
##  4  3.05 LASSO 
##  5  3.15 LASSO 
##  6  3.12 LASSO 
##  7  3.16 LASSO 
##  8  3.33 LASSO 
##  9  3.43 LASSO 
## 10  3.76 LASSO 
## # ... with 6,483 more rows
…
